Bulk RNA-Seq: Data Pre-processing for June 22 Plexwell
…
      )
  
  #Be sure to name the metadata list entries in the proper order
  names(split.metadata.list) <- c("komenredo.metadata",
                                  "rachelm.metadata",
                                  "katelynp.metadata",
                                  "lindas.metadata")

Let’s check out the results:

split.metadata.list

## $komenredo.metadata
## # A tibble: 123 × 7
##    Pool Na…¹ i7 In…² i7 Se…³ i5 In…⁴ i5 Se…⁵ Descr…⁶ sampl…⁷
##    <chr>     <chr>   <chr>   <chr>   <chr>   <chr>   <chr>  
##  1 Library … A12     TTCCAT… PB-L044 ATGTAT… 8580-P… TTCCAT…
##  2 Library … A05     TACAGA… PB-L044 ATGTAT… 7953-D… TACAGA…
##  3 Library … G07     TCAAGG… PB-L021 TCATAT… 8195-D… TCAAGG…
##  4 Library … G04     CCACAA… PB-L021 TCATAT… 7889-B… CCACAA…
##  5 Library … D05     CTGGTC… PB-L021 TCATAT… 7889-B… CTGGTC…
##  6 Library … C10     ACACAA… PB-L044 ATGTAT… 8580-B… ACACAA…
##  7 Library … H09     CGCGTG… PB-L044 ATGTAT… 8580-B… CGCGTG…
##  8 Library … D04     TCCTAT… PB-L021 TCATAT… 7889-B… TCCTAT…
##  9 Library … F03     AACCAA… PB-L021 TCATAT… 7889-B… AACCAA…
## 10 Library … G03     TCTATT… PB-L021 TCATAT… 7889-B… TCTATT…
## # … with 113 more rows, and abbreviated variable names
## #   ¹​`Pool Name*`, ²​`i7 Index Name*`, ³​`i7 Sequence*`,
## #   ⁴​`i5 Index Name`, ⁵​`i5 Sequence`, ⁶​Description,
## #   ⁷​sample.id
## # ℹ Use `print(n = ...)` to see more rows
## 
## $rachelm.metadata
## # A tibble: 32 × 7
##    Pool Na…¹ i7 In…² i7 Se…³ i5 In…⁴ i5 Se…⁵ Descr…⁶ sampl…⁷
##    <chr>     <chr>   <chr>   <chr>   <chr>   <chr>   <chr>  
##  1 Library … C12     GTTATC… PB-L021 TCATAT… 6_0.03… GTTATC…
##  2 Library … H12     GTGCGT… PB-L021 TCATAT… 6_Cont… GTGCGT…
##  3 Library … A10     CATCTT… PB-L021 TCATAT… 5Y D9.1 CATCTT…
##  4 Library … H11     CTAGCC… PB-L021 TCATAT… 6_1.39… CTAGCC…
##  5 Library … H10     ATGCCG… PB-L021 TCATAT… 5Y D15… ATGCCG…
##  6 Library … H09     CGCGTG… PB-L021 TCATAT… 5Y D6.3 CGCGTG…
##  7 Library … D09     TCCTTG… PB-L021 TCATAT… 5Y D3.2 TCCTTG…
##  8 Library … D12     TGGACA… PB-L021 TCATAT… 6_0.03… TGGACA…
##  9 Library … F09     CAGGCT… PB-L021 TCATAT… 5Y D6.1 CAGGCT…
## 10 Library … D11     CAACCG… PB-L021 TCATAT… 5Y D18… CAACCG…
## # … with 22 more rows, and abbreviated variable names
## #   ¹​`Pool Name*`, ²​`i7 Index Name*`, ³​`i7 Sequence*`,
## #   ⁴​`i5 Index Name`, ⁵​`i5 Sequence`, ⁶​Description,
## #   ⁷​sample.id
## # ℹ Use `print(n = ...)` to see more rows
## 
## $katelynp.metadata
## # A tibble: 25 × 7
##    Pool Na…¹ i7 In…² i7 Se…³ i5 In…⁴ i5 Se…⁵ Descr…⁶ sampl…⁷
##    <chr>     <chr>   <chr>   <chr>   <chr>   <chr>   <chr>  
##  1 Library … B07     CTCTCA… PB-L044 ATGTAT… MCF10A… CTCTCA…
##  2 Library … D07     TGCTCC… PB-L044 ATGTAT… MCF10A… TGCTCC…
##  3 Library … F07     ACCGTT… PB-L044 ATGTAT… MCF10A… ACCGTT…
##  4 Library … F01     CCGAGT… PB-L044 ATGTAT… MCF10A… CCGAGT…
##  5 Library … C03     AAGTAC… PB-L021 TCATAT… MCF7_M… AAGTAC…
##  6 Library … E02     ACTCGA… PB-L021 TCATAT… MCF7_M… ACTCGA…
##  7 Library … C07     CACCGC… PB-L021 TCATAT… MCF7_M… CACCGC…
##  8 Library … F02     GTACCA… PB-L021 TCATAT… MCF7_M… GTACCA…
##  9 Library … C02     CAGGAA… PB-L021 TCATAT… MCF7_M… CAGGAA…
## 10 Library … E01     TGGTGA… PB-L044 ATGTAT… MCF10A… TGGTGA…
## # … with 15 more rows, and abbreviated variable names
## #   ¹​`Pool Name*`, ²​`i7 Index Name*`, ³​`i7 Sequence*`,
## #   ⁴​`i5 Index Name`, ⁵​`i5 Sequence`, ⁶​Description,
## #   ⁷​sample.id
## # ℹ Use `print(n = ...)` to see more rows
## 
## $lindas.metadata
…
